Data Science 1 Midterm
…
ℹ Use `spec()` to retrieve the full column specification for this data.
ℹ Specify the column types or set `show_col_types = FALSE` to quiet this message.

diet_data <- dplyr::rename(diet_data, dietary_risk = rei_name)
sep_age_diet_data <- dplyr::rename(sep_age_diet_data, dietary_risk = rei_name)

diet_data %>%
  dplyr::arrange(mean)

# A tibble: 5,880 × 11
   year_id location_name      rei_id dietary_risk age_group_name sex   parameter
     <dbl> <chr>               <dbl> <chr>        <chr>          <chr> <chr>    
 1    2017 Lebanon               123 Diet high i… All available… Male  continuo…
 2    2017 Lebanon               123 Diet high i… All available… Fema… continuo…
 3    2017 Italy                 123 Diet high i… All available… Male  continuo…
 4    2017 Turkey                123 Diet high i… All available… Male  continuo…
 5    2017 Kazakhstan            123 Diet high i… All available… Male  continuo…
 6    2017 Tunisia               123 Diet high i… All available… Male  continuo…
 7    2017 Spain                 123 Diet high i… All available… Male  continuo…
 8    2017 South Africa          123 Diet high i… All available… Male  continuo…
 9    2017 Italy                 123 Diet high i… All available… Fema… continuo…
10    2017 Bosnia and Herzeg…    123 Diet high i… All available… Male  continuo…
# ℹ 5,870 more rows
# ℹ 4 more variables: mean <dbl>, upper <dbl>, lower <dbl>, unit <chr>

sep_age_diet_data %>%
  count(sex, age_group_name, location_name)

# A tibble: 5,880 × 4
   sex    age_group_name location_name           n
   <chr>  <chr>          <chr>               <int>
 1 Female 25 to 29       Afghanistan            15
 2 Female 25 to 29       Albania                15
 3 Female 25 to 29       Algeria                15
 4 Female 25 to 29       American Samoa         15
 5 Female 25 to 29       Andorra                15
 6 Female 25 to 29       Angola                 15
 7 Female 25 to 29       Antigua and Barbuda    15
 8 Female 25 to 29       Argentina              15
 9 Female 25 to 29       Armenia                15
10 Female 25 to 29       Australia              15
# ℹ 5,870 more rows
…
